<svg width="24" height="24" viewBox="0 0 24 24" fill="none" xmlns="http://www.w3.org/2000/svg">
<path d="M12 0C5.375 0 0 5.375 0 12C0 18.625 5.375 24 12 24C18.625 24 24 18.625 24 12C24 5.375 18.625 0 12 0ZM15.375 7.675H14.15C13.175 7.675 13 8.125 13 8.8V10.275H15.3L15 12.575H13V18.5H10.625V12.55H8.625V10.25H10.625V8.55C10.625 6.575 11.825 5.5 13.6 5.5C14.425 5.5 15.175 5.575 15.375 5.6V7.675Z" fill="white"/>
</svg>
