<svg width="24" height="24" viewBox="0 0 24 24" fill="none" xmlns="http://www.w3.org/2000/svg">
<path d="M12 0C5.375 0 0 5.375 0 12C0 18.625 5.375 24 12 24C18.625 24 24 18.625 24 12C24 5.375 18.625 0 12 0ZM17.6 9.15C17.6 9.275 17.6 9.4 17.6 9.525C17.6 13.325 14.7 17.725 9.4 17.725C7.825 17.725 6.3 17.275 5.075 16.4C5.3 16.425 5.525 16.45 5.75 16.45C7.05 16.45 8.3 16 9.325 15.2C8.075 15.175 7 14.375 6.625 13.2C7.05 13.275 7.5 13.275 7.925 13.15C6.575 12.875 5.6 11.7 5.6 10.325V10.3C6 10.525 6.45 10.625 6.9 10.65C5.625 9.8 5.225 8.125 6 6.8C7.475 8.625 9.625 9.7 11.95 9.825C11.7 8.825 12.025 7.775 12.775 7.075C13.925 5.975 15.75 6.05 16.85 7.2C17.5 7.075 18.1 6.825 18.675 6.5C18.45 7.175 18 7.75 17.4 8.1C17.975 8.025 18.525 7.875 19.05 7.65C18.65 8.225 18.175 8.75 17.6 9.15Z" fill="white"/>
</svg>
