<svg width="42" height="39" viewBox="0 0 42 39" fill="none" xmlns="http://www.w3.org/2000/svg">
<path d="M29.776 0H1.42898C0.639767 0 0 0.655 0 1.926V39H1.42898H40.571C41.3602 39 42 39 42 39V12.978C42 12.282 41.9092 12.058 41.749 11.893L30.3836 0.257C30.2224 0.093 30.0036 0 29.776 0Z" fill="#EAECF0"/>
<path d="M30.2793 0.150391V11.9994H41.8527L30.2793 0.150391Z" fill="#CDD3D9"/>
<path d="M11.721 13H5.86053C5.32137 13 4.88379 12.552 4.88379 12C4.88379 11.448 5.32137 11 5.86053 11H11.721C12.2602 11 12.6977 11.448 12.6977 12C12.6977 12.552 12.2602 13 11.721 13Z" fill="#CDD3D9"/>
<path d="M14.6512 18H5.86053C5.32137 18 4.88379 17.552 4.88379 17C4.88379 16.448 5.32137 16 5.86053 16H14.6512C15.1904 16 15.628 16.448 15.628 17C15.628 17.552 15.1904 18 14.6512 18Z" fill="#CDD3D9"/>
<path d="M18.5583 17.9992C18.3043 17.9992 18.0504 17.8892 17.8648 17.7092C17.689 17.5192 17.5815 17.2592 17.5815 16.9992C17.5815 16.7392 17.689 16.4792 17.8648 16.2892C18.2262 15.9192 18.8904 15.9192 19.2518 16.2892C19.4276 16.4792 19.535 16.7392 19.535 16.9992C19.535 17.2592 19.4276 17.5192 19.2518 17.7092C19.0662 17.8892 18.8122 17.9992 18.5583 17.9992Z" fill="#CDD3D9"/>
<path d="M30.279 18H22.465C21.9259 18 21.4883 17.552 21.4883 17C21.4883 16.448 21.9259 16 22.465 16H30.279C30.8181 16 31.2557 16.448 31.2557 17C31.2557 17.552 30.8181 18 30.279 18Z" fill="#CDD3D9"/>
<path d="M5.86053 32.9992C5.60658 32.9992 5.35263 32.8892 5.16704 32.7092C4.99123 32.5192 4.88379 32.2592 4.88379 31.9992C4.88379 31.7392 4.99123 31.4792 5.16704 31.2892C5.52844 30.9192 6.19263 30.9192 6.55402 31.2892C6.72984 31.4792 6.83728 31.7292 6.83728 31.9992C6.83728 32.2592 6.72984 32.5192 6.55402 32.7092C6.36844 32.8892 6.11449 32.9992 5.86053 32.9992Z" fill="#CDD3D9"/>
<path d="M17.5812 33H9.76727C9.22811 33 8.79053 32.552 8.79053 32C8.79053 31.448 9.22811 31 9.76727 31H17.5812C18.1204 31 18.558 31.448 18.558 32C18.558 32.552 18.1204 33 17.5812 33Z" fill="#CDD3D9"/>
<path d="M36.1397 18H34.1862C33.6471 18 33.2095 17.552 33.2095 17C33.2095 16.448 33.6471 16 34.1862 16H36.1397C36.6789 16 37.1164 16.448 37.1164 17C37.1164 17.552 36.6789 18 36.1397 18Z" fill="#CDD3D9"/>
<path d="M27.3489 23H5.86053C5.32137 23 4.88379 22.552 4.88379 22C4.88379 21.448 5.32137 21 5.86053 21H27.3489C27.8881 21 28.3256 21.448 28.3256 22C28.3256 22.552 27.8881 23 27.3489 23Z" fill="#CDD3D9"/>
<path d="M36.1395 23H30.279C29.7398 23 29.3022 22.552 29.3022 22C29.3022 21.448 29.7398 21 30.279 21H36.1395C36.6786 21 37.1162 21.448 37.1162 22C37.1162 22.552 36.6786 23 36.1395 23Z" fill="#CDD3D9"/>
<path d="M9.76751 28H5.86053C5.32137 28 4.88379 27.552 4.88379 27C4.88379 26.448 5.32137 26 5.86053 26H9.76751C10.3067 26 10.7443 26.448 10.7443 27C10.7443 27.552 10.3067 28 9.76751 28Z" fill="#CDD3D9"/>
<path d="M23.4419 28H13.6745C13.1353 28 12.6978 27.552 12.6978 27C12.6978 26.448 13.1353 26 13.6745 26H23.4419C23.9811 26 24.4187 26.448 24.4187 27C24.4187 27.552 23.9811 28 23.4419 28Z" fill="#CDD3D9"/>
<path d="M36.1395 28H27.3488C26.8097 28 26.3721 27.552 26.3721 27C26.3721 26.448 26.8097 26 27.3488 26H36.1395C36.6787 26 37.1163 26.448 37.1163 27C37.1163 27.552 36.6787 28 36.1395 28Z" fill="#CDD3D9"/>
</svg>
