<svg width="42" height="39" viewBox="0 0 42 39" fill="none" xmlns="http://www.w3.org/2000/svg">
<path d="M29.776 0H1.42898C0.639767 0 0 0.655 0 1.926V39H1.42898H40.571C41.3602 39 42 39 42 39V12.978C42 12.282 41.9092 12.058 41.749 11.893L30.3836 0.257C30.2224 0.093 30.0036 0 29.776 0Z" fill="#EAECF0"/>
<path d="M30.2793 0.150391V11.9994H41.8527L30.2793 0.150391Z" fill="#CDD3D9"/>
</svg>
