<svg width="40" height="48" viewBox="0 0 40 48" fill="none" xmlns="http://www.w3.org/2000/svg">
<path d="M32.3 23.3C32.3 23.1 32.1 22.9 32.1 22.7L10.9 1.3C10.5 0.9 9.7 0.9 9.3 1.3C8.9 1.7 8.9 2.3 9.3 2.7L29.9 23.3L9.3 43.9C8.9 44.3 8.9 44.9 9.3 45.3C9.7 45.7 10.3 45.7 10.7 45.3L31.9 24.1C31.9 24.1 32.1 23.9 32.1 23.7C32.1 23.5 32.3 23.5 32.3 23.3Z" fill="#CDCAC8"/>
</svg>
