<svg width="32" height="18" viewBox="0 0 32 18" fill="none" xmlns="http://www.w3.org/2000/svg">
<path d="M16.4004 16.9156H16.503L16.5761 16.8432L30.8428 2.7099L30.8428 2.7099L30.8436 2.70907C31.0344 2.51824 31.1168 2.24858 31.1168 1.99896C31.1168 1.74934 31.0344 1.47968 30.8436 1.28885C30.4793 0.924551 29.921 0.924551 29.5567 1.28885L16.0002 14.8454L2.4436 1.28885C2.0793 0.924551 1.52101 0.924551 1.15671 1.28885C0.792416 1.65315 0.792416 2.21144 1.15671 2.57573L15.29 16.7091L15.4668 16.5323C15.29 16.7091 15.2901 16.7091 15.2901 16.7092L15.2902 16.7092L15.2904 16.7094L15.2908 16.7099L15.2919 16.7109L15.2945 16.7134L15.3022 16.7208C15.3084 16.7266 15.3168 16.7342 15.327 16.7429C15.3473 16.7603 15.3762 16.7834 15.4115 16.807C15.4682 16.8448 15.5705 16.9035 15.6949 16.914C15.7113 16.9304 15.7462 16.9648 15.7924 16.9925C15.8512 17.0278 15.9205 17.049 16.0002 17.049C16.1283 17.049 16.2435 16.9905 16.3007 16.9616C16.3048 16.9595 16.3085 16.9576 16.312 16.9559C16.3845 16.9196 16.4009 16.916 16.4008 16.9157C16.4008 16.9156 16.4007 16.9156 16.4004 16.9156Z" fill="#838C9E" stroke="#838C9E" stroke-width="0.5"/>
</svg>
