<svg width="20" height="18" viewBox="0 0 20 18" fill="none" xmlns="http://www.w3.org/2000/svg">
<path d="M18.5 8.79961C18.2 8.79961 18 8.99961 18 9.29961V13.9996C18 15.2996 17 16.2996 15.7 16.2996H4.3C3 16.3996 2 15.2996 2 13.9996V9.19961C2 8.89961 1.8 8.69961 1.5 8.69961C1.2 8.69961 1 8.89961 1 9.19961V13.9996C1 15.8996 2.5 17.3996 4.4 17.3996H15.8C17.7 17.3996 19.2 15.8996 19.2 13.9996V9.29961C19.1 8.99961 18.8 8.79961 18.5 8.79961Z" fill="#1363C1"/>
<path fill-rule="evenodd" clip-rule="evenodd" d="M0.783946 8.48356C0.977835 8.28967 1.23638 8.19961 1.5 8.19961C1.76362 8.19961 2.02216 8.28967 2.21605 8.48356C2.40994 8.67745 2.5 8.93599 2.5 9.19961V13.9996C2.5 15.0619 3.30289 15.8748 4.26165 15.8011L4.2808 15.7996H15.7C16.7239 15.7996 17.5 15.0235 17.5 13.9996V9.29961C17.5 9.03599 17.5901 8.77745 17.7839 8.58356C17.9778 8.38967 18.2364 8.29961 18.5 8.29961C19.0038 8.29961 19.5027 8.62667 19.6743 9.1415L19.7 9.21847V13.9996C19.7 16.1758 17.9761 17.8996 15.8 17.8996H4.4C2.22386 17.8996 0.5 16.1758 0.5 13.9996V9.19961C0.5 8.93599 0.590057 8.67745 0.783946 8.48356ZM18.7 9.40782C18.6564 9.34592 18.5767 9.29961 18.5 9.29961V13.9996C18.5 15.5758 17.2761 16.7996 15.7 16.7996H4.31824C3.65021 16.8461 3.0566 16.6416 2.58853 16.2788C3.0819 16.6689 3.70951 16.8996 4.4 16.8996H15.8C17.4239 16.8996 18.7 15.6235 18.7 13.9996V9.40782ZM1.5 13.9996C1.5 14.5833 1.67248 15.1453 1.97626 15.611C1.67438 15.1527 1.5 14.5999 1.5 13.9996Z" fill="#1363C1"/>
<path d="M9.6 13.2996C9.7 13.3996 9.8 13.4996 10 13.4996C10.1 13.4996 10.3 13.3996 10.4 13.2996L13.7 9.99961C13.9 9.79961 13.9 9.49961 13.7 9.29961C13.5 9.09961 13.2 9.09961 13 9.29961L10.6 11.6996V1.09961C10.6 0.79961 10.4 0.599609 10.1 0.599609C9.8 0.599609 9.6 0.79961 9.6 1.09961V11.5996L7.2 9.19961C7 8.99961 6.7 8.99961 6.5 9.19961C6.3 9.39961 6.3 9.69961 6.5 9.89961L9.6 13.2996Z" fill="#1363C1"/>
<path fill-rule="evenodd" clip-rule="evenodd" d="M9.38395 0.383556C9.57784 0.189667 9.83638 0.0996094 10.1 0.0996094C10.3636 0.0996094 10.6222 0.189667 10.8161 0.383556C11.0099 0.577446 11.1 0.835986 11.1 1.09961V10.4925L12.6464 8.94605C13.0417 8.55079 13.6583 8.55079 14.0536 8.94605C14.4488 9.34132 14.4488 9.9579 14.0536 10.3532L10.7536 13.6532C10.6541 13.7526 10.5296 13.8313 10.4236 13.8843C10.3334 13.9294 10.1714 13.9996 10 13.9996C9.59178 13.9996 9.3645 13.7716 9.25548 13.6622C9.25237 13.6591 9.24936 13.6561 9.24645 13.6532L9.23829 13.645L6.13709 10.2437C5.75121 9.8481 5.75433 9.23817 6.14645 8.84606C6.54171 8.45079 7.15829 8.45079 7.55355 8.84606L9.1 10.3925V1.09961C9.1 0.835986 9.19006 0.577446 9.38395 0.383556ZM7.0086 9.71531L9.96162 12.9541C9.97359 12.966 9.98275 12.9751 9.9905 12.9825C10.0039 12.9753 10.0166 12.9675 10.0277 12.9599C10.0411 12.9508 10.0471 12.9454 10.0471 12.9454L10.1 12.8925V12.8067L7.0086 9.71531Z" fill="#1363C1"/>
</svg>
